# Blender v2.83.12 OBJ File: ''
# www.blender.org
mtllib wheel_connector.mtl
o ObjObject.001
v 0.000000 0.200000 0.100000
v 0.000000 0.000000 -0.100000
v 0.000000 -0.000000 0.100000
v 0.000000 0.200000 -0.100000
v 1.400000 -0.000000 0.100000
v 1.400000 0.000000 -0.100000
v 1.400000 0.200000 0.100000
v 1.400000 0.200000 -0.100000
v 1.400000 -0.000000 0.100000
v 0.000000 0.200000 0.100000
v 0.000000 -0.000000 0.100000
v 1.400000 0.200000 0.100000
v 0.000000 0.000000 -0.100000
v 0.000000 0.200000 -0.100000
v 1.400000 0.000000 -0.100000
v 1.400000 0.200000 -0.100000
v 0.000000 0.000000 -0.100000
v 1.400000 -0.000000 0.100000
v 0.000000 -0.000000 0.100000
v 1.400000 0.000000 -0.100000
v 0.000000 0.200000 0.100000
v 1.400000 0.200000 0.100000
v 0.000000 0.200000 -0.100000
v 1.400000 0.200000 -0.100000
vt 0.994141 0.500000
vt 0.994141 0.500000
vt 0.994141 0.500000
vt 0.994141 0.500000
vt 0.994141 0.500000
vt 0.994141 0.500000
vt 0.994141 0.500000
vt 0.994141 0.500000
vt 0.994141 0.500000
vt 0.994141 0.500000
vt 0.994141 0.500000
vt 0.994141 0.500000
vt 0.994141 0.500000
vt 0.994141 0.500000
vt 0.994141 0.500000
vt 0.994141 0.500000
vt 0.994141 0.500000
vt 0.994141 0.500000
vt 0.994141 0.500000
vt 0.994141 0.500000
vt 0.994141 0.500000
vt 0.994141 0.500000
vt 0.994141 0.500000
vt 0.994141 0.500000
vn -1.0000 0.0000 0.0000
vn 1.0000 0.0000 0.0000
vn 0.0000 -0.0000 1.0000
vn 0.0000 0.0000 -1.0000
vn 0.0000 -1.0000 -0.0000
vn 0.0000 1.0000 0.0000
usemtl palette.001
s 1
f 1/1/1 2/2/1 3/3/1
f 4/4/1 2/2/1 1/1/1
f 5/5/2 6/6/2 7/7/2
f 7/7/2 6/6/2 8/8/2
f 9/9/3 10/10/3 11/11/3
f 12/12/3 10/10/3 9/9/3
f 13/13/4 14/14/4 15/15/4
f 15/15/4 14/14/4 16/16/4
f 17/17/5 18/18/5 19/19/5
f 20/20/5 18/18/5 17/17/5
f 21/21/6 22/22/6 23/23/6
f 23/23/6 22/22/6 24/24/6
o wheel_connector_ObjObject
v -1.400000 0.200000 0.100000
v -1.400000 0.000000 -0.100000
v -1.400000 -0.000000 0.100000
v -1.400000 0.200000 -0.100000
v 0.000000 -0.000000 0.100000
v 0.000000 0.000000 -0.100000
v 0.000000 0.200000 0.100000
v 0.000000 0.200000 -0.100000
v 0.000000 -0.000000 0.100000
v -1.400000 0.200000 0.100000
v -1.400000 -0.000000 0.100000
v 0.000000 0.200000 0.100000
v -1.400000 0.000000 -0.100000
v -1.400000 0.200000 -0.100000
v 0.000000 0.000000 -0.100000
v 0.000000 0.200000 -0.100000
v -1.400000 0.000000 -0.100000
v 0.000000 -0.000000 0.100000
v -1.400000 -0.000000 0.100000
v 0.000000 0.000000 -0.100000
v -1.400000 0.200000 0.100000
v 0.000000 0.200000 0.100000
v -1.400000 0.200000 -0.100000
v 0.000000 0.200000 -0.100000
vt 0.994141 0.500000
vt 0.994141 0.500000
vt 0.994141 0.500000
vt 0.994141 0.500000
vt 0.994141 0.500000
vt 0.994141 0.500000
vt 0.994141 0.500000
vt 0.994141 0.500000
vt 0.994141 0.500000
vt 0.994141 0.500000
vt 0.994141 0.500000
vt 0.994141 0.500000
vt 0.994141 0.500000
vt 0.994141 0.500000
vt 0.994141 0.500000
vt 0.994141 0.500000
vt 0.994141 0.500000
vt 0.994141 0.500000
vt 0.994141 0.500000
vt 0.994141 0.500000
vt 0.994141 0.500000
vt 0.994141 0.500000
vt 0.994141 0.500000
vt 0.994141 0.500000
vn -1.0000 0.0000 0.0000
vn 1.0000 0.0000 0.0000
vn 0.0000 -0.0000 1.0000
vn 0.0000 0.0000 -1.0000
vn 0.0000 -1.0000 -0.0000
vn 0.0000 1.0000 0.0000
usemtl palette
s 1
f 25/25/7 26/26/7 27/27/7
f 28/28/7 26/26/7 25/25/7
f 29/29/8 30/30/8 31/31/8
f 31/31/8 30/30/8 32/32/8
f 33/33/9 34/34/9 35/35/9
f 36/36/9 34/34/9 33/33/9
f 37/37/10 38/38/10 39/39/10
f 39/39/10 38/38/10 40/40/10
f 41/41/11 42/42/11 43/43/11
f 44/44/11 42/42/11 41/41/11
f 45/45/12 46/46/12 47/47/12
f 47/47/12 46/46/12 48/48/12
