Library\Bee\artifacts\movedfrom\UnityEngine.Purchasing.AppleCore.ref.dll_6448481587299922326.movedfrom
Library\Bee\artifacts\movedfrom\UnityEngine.Purchasing.AppleMacosStub.ref.dll_9295112788668327632.movedfrom
Library\Bee\artifacts\movedfrom\UnityEngine.Purchasing.AppleStub.ref.dll_11863713739957431509.movedfrom
Library\Bee\artifacts\movedfrom\UnityEngine.Purchasing.SecurityCore.ref.dll_10304201478501849464.movedfrom
Library\Bee\artifacts\movedfrom\UnityEngine.Purchasing.SecurityStub.ref.dll_15719433631159358647.movedfrom
Library\Bee\artifacts\movedfrom\UnityEngine.Purchasing.WinRTCore.ref.dll_1848992860954996714.movedfrom
Library\Bee\artifacts\movedfrom\UnityEngine.Purchasing.WinRTStub.ref.dll_7264225013612505897.movedfrom
Library\Bee\artifacts\movedfrom\UnityEngine.Purchasing.ref.dll_4725082278123813051.movedfrom
Library\Bee\artifacts\movedfrom\UnityEngine.UI.ref.dll_1316223851520833009.movedfrom
Library\Bee\artifacts\movedfrom\UnityEngine.AccessibilityModule.dll_16492093504352351924.movedfrom
Library\Bee\artifacts\movedfrom\UnityEngine.AIModule.dll_17548727497598737286.movedfrom
Library\Bee\artifacts\movedfrom\UnityEngine.AndroidJNIModule.dll_9481854891935081540.movedfrom
Library\Bee\artifacts\movedfrom\UnityEngine.AnimationModule.dll_1224704863195957338.movedfrom
Library\Bee\artifacts\movedfrom\UnityEngine.ARModule.dll_12464943086488648271.movedfrom
Library\Bee\artifacts\movedfrom\UnityEngine.AssetBundleModule.dll_9346328920983670472.movedfrom
Library\Bee\artifacts\movedfrom\UnityEngine.AudioModule.dll_14886328405797487308.movedfrom
Library\Bee\artifacts\movedfrom\UnityEngine.ClothModule.dll_3854863351024361904.movedfrom
Library\Bee\artifacts\movedfrom\UnityEngine.ClusterInputModule.dll_18115227226319520238.movedfrom
Library\Bee\artifacts\movedfrom\UnityEngine.ClusterRendererModule.dll_15247759807160126579.movedfrom
Library\Bee\artifacts\movedfrom\UnityEngine.CoreModule.dll_18040959531017155229.movedfrom
Library\Bee\artifacts\movedfrom\UnityEngine.CrashReportingModule.dll_1201830743890037333.movedfrom
Library\Bee\artifacts\movedfrom\UnityEngine.DirectorModule.dll_8788537206778314746.movedfrom
Library\Bee\artifacts\movedfrom\UnityEngine.dll_10978290659963999336.movedfrom
Library\Bee\artifacts\movedfrom\UnityEngine.DSPGraphModule.dll_9171731755599925531.movedfrom
Library\Bee\artifacts\movedfrom\UnityEngine.GameCenterModule.dll_12530028893590525237.movedfrom
Library\Bee\artifacts\movedfrom\UnityEngine.GIModule.dll_10071706539052204960.movedfrom
Library\Bee\artifacts\movedfrom\UnityEngine.GridModule.dll_15550781121482344596.movedfrom
Library\Bee\artifacts\movedfrom\UnityEngine.HotReloadModule.dll_10540609624773501916.movedfrom
Library\Bee\artifacts\movedfrom\UnityEngine.ImageConversionModule.dll_4579292699435648103.movedfrom
Library\Bee\artifacts\movedfrom\UnityEngine.IMGUIModule.dll_501724984760030893.movedfrom
Library\Bee\artifacts\movedfrom\UnityEngine.InputLegacyModule.dll_1367387574378874041.movedfrom
Library\Bee\artifacts\movedfrom\UnityEngine.InputModule.dll_3822611056943294320.movedfrom
Library\Bee\artifacts\movedfrom\UnityEngine.JSONSerializeModule.dll_4969503273526384446.movedfrom
Library\Bee\artifacts\movedfrom\UnityEngine.LocalizationModule.dll_4157668537269122279.movedfrom
Library\Bee\artifacts\movedfrom\UnityEngine.ParticleSystemModule.dll_7187758191231833571.movedfrom
Library\Bee\artifacts\movedfrom\UnityEngine.PerformanceReportingModule.dll_7682149656716977244.movedfrom
Library\Bee\artifacts\movedfrom\UnityEngine.Physics2DModule.dll_6747789198007861231.movedfrom
Library\Bee\artifacts\movedfrom\UnityEngine.PhysicsModule.dll_8208734744056102685.movedfrom
Library\Bee\artifacts\movedfrom\UnityEngine.ProfilerModule.dll_12411183063708256007.movedfrom
Library\Bee\artifacts\movedfrom\UnityEngine.RuntimeInitializeOnLoadManagerInitializerModule.dll_1259221063940296376.movedfrom
Library\Bee\artifacts\movedfrom\UnityEngine.ScreenCaptureModule.dll_6836154631179633568.movedfrom
Library\Bee\artifacts\movedfrom\UnityEngine.SharedInternalsModule.dll_14095749273594675127.movedfrom
Library\Bee\artifacts\movedfrom\UnityEngine.SpriteMaskModule.dll_10885215093055269551.movedfrom
Library\Bee\artifacts\movedfrom\UnityEngine.SpriteShapeModule.dll_11175121712290416338.movedfrom
Library\Bee\artifacts\movedfrom\UnityEngine.StreamingModule.dll_14236991015763623832.movedfrom
Library\Bee\artifacts\movedfrom\UnityEngine.SubstanceModule.dll_11691072156444638630.movedfrom
Library\Bee\artifacts\movedfrom\UnityEngine.SubsystemsModule.dll_125383728595702466.movedfrom
Library\Bee\artifacts\movedfrom\UnityEngine.TerrainModule.dll_10102071153374611467.movedfrom
Library\Bee\artifacts\movedfrom\UnityEngine.TerrainPhysicsModule.dll_7222283763005919344.movedfrom
Library\Bee\artifacts\movedfrom\UnityEngine.TextCoreModule.dll_1347134776647200778.movedfrom
Library\Bee\artifacts\movedfrom\UnityEngine.TextRenderingModule.dll_9808374300616557461.movedfrom
Library\Bee\artifacts\movedfrom\UnityEngine.TilemapModule.dll_3111472435935455508.movedfrom
Library\Bee\artifacts\movedfrom\UnityEngine.TLSModule.dll_9048669034312941745.movedfrom
Library\Bee\artifacts\movedfrom\UnityEngine.UIElementsModule.dll_431172652661198521.movedfrom
Library\Bee\artifacts\movedfrom\UnityEngine.UIElementsNativeModule.dll_13735569809354205808.movedfrom
Library\Bee\artifacts\movedfrom\UnityEngine.UIModule.dll_17220983067389698354.movedfrom
Library\Bee\artifacts\movedfrom\UnityEngine.UmbraModule.dll_5290472721225117247.movedfrom
Library\Bee\artifacts\movedfrom\UnityEngine.UNETModule.dll_10161428100324829206.movedfrom
Library\Bee\artifacts\movedfrom\UnityEngine.UnityAnalyticsModule.dll_9466422139183589343.movedfrom
Library\Bee\artifacts\movedfrom\UnityEngine.UnityConnectModule.dll_7577664987037085651.movedfrom
Library\Bee\artifacts\movedfrom\UnityEngine.UnityCurlModule.dll_4907700692184005191.movedfrom
Library\Bee\artifacts\movedfrom\UnityEngine.UnityTestProtocolModule.dll_2653809038277685813.movedfrom
Library\Bee\artifacts\movedfrom\UnityEngine.UnityWebRequestAssetBundleModule.dll_15803020160844618224.movedfrom
Library\Bee\artifacts\movedfrom\UnityEngine.UnityWebRequestAudioModule.dll_16328027256564477684.movedfrom
Library\Bee\artifacts\movedfrom\UnityEngine.UnityWebRequestModule.dll_5849034746287054566.movedfrom
Library\Bee\artifacts\movedfrom\UnityEngine.UnityWebRequestTextureModule.dll_11891104544630811465.movedfrom
Library\Bee\artifacts\movedfrom\UnityEngine.UnityWebRequestWWWModule.dll_17733785312625689861.movedfrom
Library\Bee\artifacts\movedfrom\UnityEngine.VehiclesModule.dll_17418271368679329685.movedfrom
Library\Bee\artifacts\movedfrom\UnityEngine.VFXModule.dll_18334696117808802334.movedfrom
Library\Bee\artifacts\movedfrom\UnityEngine.VideoModule.dll_17555138254056971889.movedfrom
Library\Bee\artifacts\movedfrom\UnityEngine.VirtualTexturingModule.dll_16369248079633820411.movedfrom
Library\Bee\artifacts\movedfrom\UnityEngine.VRModule.dll_4742113805285336746.movedfrom
Library\Bee\artifacts\movedfrom\UnityEngine.WindModule.dll_8119207569247973638.movedfrom
Library\Bee\artifacts\movedfrom\UnityEngine.XRModule.dll_8398688177006343176.movedfrom