# MagicaVoxel @ Ephtracy

# group
o 

# material
mtllib wheel_engine.mtl
usemtl palette

# normals
vn -1 0 0
vn 1 0 0
vn 0 0 1
vn 0 0 -1
vn 0 -1 0
vn 0 1 0

# texcoords
vt 0.185547 0.5
vt 0.966797 0.5
vt 0.970703 0.5
vt 0.982422 0.5

# verts
v -0.9 0 0.2
v -0.9 0 -0.5
v -0.9 0.1 0.4
v -0.9 0.1 0.2
v -0.9 0.3 0.4
v -0.9 0.3 0.2
v -0.9 0.4 0.2
v -0.9 0.4 -0.5
v -0.8 0 0.4
v -0.8 0 0.2
v -0.8 0.1 0.7
v -0.8 0.1 0.6
v -0.8 0.1 0.4
v -0.8 0.1 0.2
v -0.8 0.3 0.7
v -0.8 0.3 0.6
v -0.8 0.3 0.4
v -0.8 0.3 0.2
v -0.8 0.4 0.4
v -0.8 0.4 0.2
v -0.6 0 0.4
v -0.6 0 0.2
v -0.6 0.1 0.4
v -0.6 0.1 0.2
v -0.6 0.3 0.4
v -0.6 0.3 0.2
v -0.6 0.4 0.4
v -0.6 0.4 0.2
v -0.5 0 0.2
v -0.5 0 -0.5
v -0.5 0.1 0.7
v -0.5 0.1 0.4
v -0.5 0.1 0.2
v -0.5 0.3 0.7
v -0.5 0.3 0.4
v -0.5 0.3 0.2
v -0.5 0.4 0.2
v -0.5 0.4 -0.5
v -0.8 0.1 0.7
v -0.8 0.3 0.7
v -0.6 0.1 0.7
v -0.6 0.3 0.7
v -0.5 0.1 0.7
v -0.5 0.3 0.7
v -0.9 0.1 0.4
v -0.9 0.3 0.4
v -0.8 0 0.4
v -0.8 0.1 0.4
v -0.8 0.3 0.4
v -0.8 0.4 0.4
v -0.6 0 0.4
v -0.6 0.1 0.4
v -0.6 0.3 0.4
v -0.6 0.4 0.4
v -0.9 0 0.2
v -0.9 0.1 0.2
v -0.9 0.3 0.2
v -0.9 0.4 0.2
v -0.8 0 0.2
v -0.8 0.1 0.2
v -0.8 0.3 0.2
v -0.8 0.4 0.2
v -0.6 0 0.2
v -0.6 0.1 0.2
v -0.6 0.3 0.2
v -0.6 0.4 0.2
v -0.5 0 0.2
v -0.5 0.1 0.2
v -0.5 0.3 0.2
v -0.5 0.4 0.2
v -0.9 0 -0.5
v -0.9 0.4 -0.5
v -0.5 0 -0.5
v -0.5 0.4 -0.5
v -0.8 0 0.4
v -0.6 0 0.4
v -0.9 0 0.2
v -0.8 0 0.2
v -0.6 0 0.2
v -0.5 0 0.2
v -0.9 0 -0.5
v -0.5 0 -0.5
v -0.8 0.1 0.7
v -0.6 0.1 0.7
v -0.5 0.1 0.7
v -0.8 0.1 0.6
v -0.6 0.1 0.6
v -0.9 0.1 0.4
v -0.8 0.1 0.4
v -0.6 0.1 0.4
v -0.5 0.1 0.4
v -0.9 0.1 0.2
v -0.8 0.1 0.2
v -0.6 0.1 0.2
v -0.5 0.1 0.2
v -0.8 0.3 0.7
v -0.6 0.3 0.7
v -0.5 0.3 0.7
v -0.8 0.3 0.6
v -0.6 0.3 0.6
v -0.9 0.3 0.4
v -0.8 0.3 0.4
v -0.6 0.3 0.4
v -0.5 0.3 0.4
v -0.9 0.3 0.2
v -0.8 0.3 0.2
v -0.6 0.3 0.2
v -0.5 0.3 0.2
v -0.8 0.4 0.4
v -0.6 0.4 0.4
v -0.9 0.4 0.2
v -0.8 0.4 0.2
v -0.6 0.4 0.2
v -0.5 0.4 0.2
v -0.9 0.4 -0.5
v -0.5 0.4 -0.5

# faces
f 4/1/1 2/1/1 1/1/1
f 5/1/1 4/1/1 3/1/1
f 6/1/1 2/1/1 4/1/1
f 6/1/1 4/1/1 5/1/1
f 7/1/1 2/1/1 6/1/1
f 8/1/1 2/1/1 7/1/1
f 13/1/1 10/1/1 9/1/1
f 14/1/1 10/1/1 13/1/1
f 15/4/1 12/4/1 11/4/1
f 16/3/1 13/3/1 12/3/1
f 16/4/1 12/4/1 15/4/1
f 17/3/1 13/3/1 16/3/1
f 19/1/1 18/1/1 17/1/1
f 20/1/1 18/1/1 19/1/1
f 21/1/2 22/1/2 23/1/2
f 23/1/2 22/1/2 24/1/2
f 25/1/2 26/1/2 27/1/2
f 27/1/2 26/1/2 28/1/2
f 29/1/2 30/1/2 33/1/2
f 31/2/2 32/2/2 34/2/2
f 32/1/2 33/1/2 35/1/2
f 34/2/2 32/2/2 35/2/2
f 33/1/2 30/1/2 36/1/2
f 35/1/2 33/1/2 36/1/2
f 36/1/2 30/1/2 37/1/2
f 37/1/2 30/1/2 38/1/2
f 41/4/3 40/4/3 39/4/3
f 42/4/3 40/4/3 41/4/3
f 43/2/3 42/2/3 41/2/3
f 44/2/3 42/2/3 43/2/3
f 48/1/3 46/1/3 45/1/3
f 49/1/3 46/1/3 48/1/3
f 51/1/3 48/1/3 47/1/3
f 52/1/3 48/1/3 51/1/3
f 53/1/3 50/1/3 49/1/3
f 54/1/3 50/1/3 53/1/3
f 59/1/3 56/1/3 55/1/3
f 60/1/3 56/1/3 59/1/3
f 61/1/3 58/1/3 57/1/3
f 62/1/3 58/1/3 61/1/3
f 67/1/3 64/1/3 63/1/3
f 68/1/3 64/1/3 67/1/3
f 69/1/3 66/1/3 65/1/3
f 70/1/3 66/1/3 69/1/3
f 71/1/4 72/1/4 73/1/4
f 73/1/4 72/1/4 74/1/4
f 78/1/5 76/1/5 75/1/5
f 79/1/5 76/1/5 78/1/5
f 81/1/5 78/1/5 77/1/5
f 81/1/5 80/1/5 79/1/5
f 81/1/5 79/1/5 78/1/5
f 82/1/5 80/1/5 81/1/5
f 86/4/5 84/4/5 83/4/5
f 87/2/5 85/2/5 84/2/5
f 87/4/5 84/4/5 86/4/5
f 89/3/5 87/3/5 86/3/5
f 90/2/5 85/2/5 87/2/5
f 90/3/5 87/3/5 89/3/5
f 91/2/5 85/2/5 90/2/5
f 92/1/5 89/1/5 88/1/5
f 93/1/5 89/1/5 92/1/5
f 94/1/5 91/1/5 90/1/5
f 95/1/5 91/1/5 94/1/5
f 96/4/6 97/4/6 99/4/6
f 97/2/6 98/2/6 100/2/6
f 99/4/6 97/4/6 100/4/6
f 99/3/6 100/3/6 102/3/6
f 100/2/6 98/2/6 103/2/6
f 102/3/6 100/3/6 103/3/6
f 103/2/6 98/2/6 104/2/6
f 101/1/6 102/1/6 105/1/6
f 105/1/6 102/1/6 106/1/6
f 103/1/6 104/1/6 107/1/6
f 107/1/6 104/1/6 108/1/6
f 109/1/6 110/1/6 112/1/6
f 112/1/6 110/1/6 113/1/6
f 111/1/6 112/1/6 115/1/6
f 113/1/6 114/1/6 115/1/6
f 112/1/6 113/1/6 115/1/6
f 115/1/6 114/1/6 116/1/6
